<?xml version="1.0" encoding="UTF-8" standalone="no"?>
<!-- Created with Inkscape (http://www.inkscape.org/) -->

<svg
   xmlns:dc="http://purl.org/dc/elements/1.1/"
   xmlns:cc="http://creativecommons.org/ns#"
   xmlns:rdf="http://www.w3.org/1999/02/22-rdf-syntax-ns#"
   xmlns:svg="http://www.w3.org/2000/svg"
   xmlns="http://www.w3.org/2000/svg"
   xmlns:sodipodi="http://sodipodi.sourceforge.net/DTD/sodipodi-0.dtd"
   xmlns:inkscape="http://www.inkscape.org/namespaces/inkscape"
   width="512.4375"
   height="93.499992"
   viewBox="0 0 135.58242 24.738539"
   version="1.1"
   id="svg8"
   inkscape:version="0.92.3 (2405546, 2018-03-11)"
   sodipodi:docname="loading.svg">
  <defs
     id="defs2" />
  <sodipodi:namedview
     id="base"
     pagecolor="#000000"
     bordercolor="#666666"
     borderopacity="1.0"
     inkscape:pageopacity="0"
     inkscape:pageshadow="2"
     inkscape:zoom="0.98994949"
     inkscape:cx="291.6923"
     inkscape:cy="62.314321"
     inkscape:document-units="mm"
     inkscape:current-layer="text901"
     showgrid="false"
     inkscape:window-width="1600"
     inkscape:window-height="900"
     inkscape:window-x="0"
     inkscape:window-y="0"
     inkscape:window-maximized="0"
     fit-margin-top="0"
     fit-margin-left="0"
     fit-margin-right="0"
     fit-margin-bottom="0"
     units="px" />
  <metadata
     id="metadata5">
    <rdf:RDF>
      <cc:Work
         rdf:about="">
        <dc:format>image/svg+xml</dc:format>
        <dc:type
           rdf:resource="http://purl.org/dc/dcmitype/StillImage" />
        <dc:title></dc:title>
      </cc:Work>
    </rdf:RDF>
  </metadata>
  <g
     inkscape:label="Layer 1"
     inkscape:groupmode="layer"
     id="layer1"
     transform="translate(-47.613116,-101.95997)">
    <g
       aria-label="LOADING"
       style="font-style:normal;font-weight:normal;font-size:10.58333302px;line-height:1.25;font-family:sans-serif;letter-spacing:0px;word-spacing:0px;fill:#ffffff;fill-opacity:1;stroke:none;stroke-width:0.26458332"
       id="text901">
      <path
         d="m 50.804652,123.77156 h 11.410156 v 2.59622 H 47.613116 V 102.2907 h 3.191536 z"
         style="font-style:normal;font-variant:normal;font-weight:normal;font-stretch:normal;font-size:33.86666489px;font-family:Roboto;-inkscape-font-specification:'Roboto, Normal';font-variant-ligatures:normal;font-variant-caps:normal;font-variant-numeric:normal;font-feature-settings:normal;text-align:start;writing-mode:lr-tb;text-anchor:start;fill:#ffffff;fill-opacity:1;stroke-width:0.26458332"
         id="path903"
         inkscape:connector-curvature="0" />
      <path
         d="m 83.331864,115.10646 q 0,3.5388 -1.190624,6.18463 -1.190625,2.6293 -3.373438,4.01836 -2.182812,1.38906 -5.093229,1.38906 -2.84427,0 -5.043619,-1.38906 -2.199349,-1.4056 -3.423047,-3.98529 -1.207161,-2.59622 -1.240234,-6.00273 v -1.73633 q 0,-3.47266 1.207161,-6.13502 1.207162,-2.66237 3.40651,-4.06797 2.215886,-1.42214 5.060156,-1.42214 2.89388,0 5.093229,1.4056 2.215886,1.38906 3.406511,4.05143 1.190624,2.64584 1.190624,6.1681 z m -3.158463,-1.55443 q 0,-4.28294 -1.719792,-6.56498 -1.719791,-2.29856 -4.812109,-2.29856 -3.009635,0 -4.745963,2.29856 -1.719791,2.28204 -1.769401,6.35 v 1.76941 q 0,4.15065 1.736328,6.5319 1.752865,2.36471 4.812109,2.36471 3.075781,0 4.7625,-2.23242 1.686719,-2.24896 1.736328,-6.43268 z"
         style="font-style:normal;font-variant:normal;font-weight:normal;font-stretch:normal;font-size:33.86666489px;font-family:Roboto;-inkscape-font-specification:'Roboto, Normal';font-variant-ligatures:normal;font-variant-caps:normal;font-variant-numeric:normal;font-feature-settings:normal;text-align:start;writing-mode:lr-tb;text-anchor:start;fill:#ffffff;fill-opacity:1;stroke-width:0.26458332"
         id="path905"
         inkscape:connector-curvature="0" />
      <path
         d="M 101.05895,120.08393 H 90.971709 l -2.265495,6.28385 h -3.274218 l 9.19427,-24.07708 h 2.778125 l 9.210809,24.07708 h -3.25768 z m -9.128126,-2.61276 h 8.185546 l -4.101041,-11.26133 z"
         style="font-style:normal;font-variant:normal;font-weight:normal;font-stretch:normal;font-size:33.86666489px;font-family:Roboto;-inkscape-font-specification:'Roboto, Normal';font-variant-ligatures:normal;font-variant-caps:normal;font-variant-numeric:normal;font-feature-settings:normal;text-align:start;writing-mode:lr-tb;text-anchor:start;fill:#ffffff;fill-opacity:1;stroke-width:0.26458332"
         id="path907"
         inkscape:connector-curvature="0" />
      <path
         d="M 109.85634,126.36778 V 102.2907 h 6.79649 q 3.14192,0 5.55624,1.38906 2.41433,1.38907 3.72071,3.95222 1.32291,2.56315 1.33945,5.88698 v 1.53789 q 0,3.40651 -1.32292,5.96966 -1.30638,2.56315 -3.75377,3.93567 -2.43086,1.37253 -5.67201,1.4056 z m 3.175,-21.46432 v 18.8681 h 3.34037 q 3.67109,0 5.70507,-2.28203 2.05052,-2.28203 2.05052,-6.49883 v -1.4056 q 0,-4.10104 -1.93476,-6.36654 -1.91823,-2.28203 -5.45703,-2.3151 z"
         style="font-style:normal;font-variant:normal;font-weight:normal;font-stretch:normal;font-size:33.86666489px;font-family:Roboto;-inkscape-font-specification:'Roboto, Normal';font-variant-ligatures:normal;font-variant-caps:normal;font-variant-numeric:normal;font-feature-settings:normal;text-align:start;writing-mode:lr-tb;text-anchor:start;fill:#ffffff;fill-opacity:1;stroke-width:0.26458332"
         id="path909"
         inkscape:connector-curvature="0" />
      <path
         d="m 135.48785,126.36778 h -3.175 V 102.2907 h 3.175 z"
         style="font-style:normal;font-variant:normal;font-weight:normal;font-stretch:normal;font-size:33.86666489px;font-family:Roboto;-inkscape-font-specification:'Roboto, Normal';font-variant-ligatures:normal;font-variant-caps:normal;font-variant-numeric:normal;font-feature-settings:normal;text-align:start;writing-mode:lr-tb;text-anchor:start;fill:#ffffff;fill-opacity:1;stroke-width:0.26458332"
         id="path911"
         inkscape:connector-curvature="0" />
      <path
         d="m 159.7799,126.36778 h -3.19153 l -12.12123,-18.5539 v 18.5539 h -3.19153 V 102.2907 h 3.19153 l 12.1543,18.63659 V 102.2907 h 3.15846 z"
         style="font-style:normal;font-variant:normal;font-weight:normal;font-stretch:normal;font-size:33.86666489px;font-family:Roboto;-inkscape-font-specification:'Roboto, Normal';font-variant-ligatures:normal;font-variant-caps:normal;font-variant-numeric:normal;font-feature-settings:normal;text-align:start;writing-mode:lr-tb;text-anchor:start;fill:#ffffff;fill-opacity:1;stroke-width:0.26458332"
         id="path913"
         inkscape:connector-curvature="0" />
      <path
         d="m 183.19553,123.20932 q -1.22369,1.75286 -3.42304,2.6293 -2.18282,0.85989 -5.09323,0.85989 -2.94349,0 -5.22552,-1.37252 -2.28203,-1.38907 -3.53881,-3.93568 -1.24023,-2.54662 -1.2733,-5.90352 v -2.10013 q 0,-5.44049 2.53008,-8.43359 2.54661,-2.9931 7.14375,-2.9931 3.77031,0 6.06888,1.93477 2.29856,1.91823 2.81119,5.45703 h -3.175 q -0.89297,-4.77904 -5.68854,-4.77904 -3.19153,0 -4.84518,2.24896 -1.63711,2.23242 -1.65365,6.48229 v 1.96784 q 0,4.05143 1.85209,6.44922 1.85208,2.38125 5.01054,2.38125 1.78594,0 3.12539,-0.39688 1.33946,-0.39687 2.21589,-1.33945 v -5.40742 h -5.57279 v -2.57969 h 8.73125 z"
         style="font-style:normal;font-variant:normal;font-weight:normal;font-stretch:normal;font-size:33.86666489px;font-family:Roboto;-inkscape-font-specification:'Roboto, Normal';font-variant-ligatures:normal;font-variant-caps:normal;font-variant-numeric:normal;font-feature-settings:normal;text-align:start;writing-mode:lr-tb;text-anchor:start;fill:#ffffff;fill-opacity:1;stroke-width:0.26458332"
         id="path915"
         inkscape:connector-curvature="0" />
    </g>
  </g>
</svg>
